<?xml version="1.0" encoding="UTF-8" standalone="no"?>
<!-- Created with Inkscape (http://www.inkscape.org/) -->

<svg
   xmlns:dc="http://purl.org/dc/elements/1.1/"
   xmlns:cc="http://creativecommons.org/ns#"
   xmlns:rdf="http://www.w3.org/1999/02/22-rdf-syntax-ns#"
   xmlns:svg="http://www.w3.org/2000/svg"
   xmlns="http://www.w3.org/2000/svg"
   xmlns:sodipodi="http://sodipodi.sourceforge.net/DTD/sodipodi-0.dtd"
   xmlns:inkscape="http://www.inkscape.org/namespaces/inkscape"
   width="210mm"
   height="33mm"
   viewBox="0 0 210 33"
   version="1.1"
   id="svg1989"
   inkscape:version="0.92.3 (2405546, 2018-03-11)"
   sodipodi:docname="CabecalhoGC.svg">
  <defs
     id="defs1983" />
  <sodipodi:namedview
     id="base"
     pagecolor="#ffffff"
     bordercolor="#666666"
     borderopacity="1.0"
     inkscape:pageopacity="0.0"
     inkscape:pageshadow="2"
     inkscape:zoom="0.98994949"
     inkscape:cx="292.84331"
     inkscape:cy="17.924828"
     inkscape:document-units="mm"
     inkscape:current-layer="g2657"
     showgrid="false"
     inkscape:window-width="1920"
     inkscape:window-height="1023"
     inkscape:window-x="0"
     inkscape:window-y="0"
     inkscape:window-maximized="1" />
  <metadata
     id="metadata1986">
    <rdf:RDF>
      <cc:Work
         rdf:about="">
        <dc:format>image/svg+xml</dc:format>
        <dc:type
           rdf:resource="http://purl.org/dc/dcmitype/StillImage" />
        <dc:title />
      </cc:Work>
    </rdf:RDF>
  </metadata>
  <g
     inkscape:label="Camada 1"
     inkscape:groupmode="layer"
     id="layer1"
     transform="translate(0,-264)">
    <g
       id="g2657"
       transform="translate(0,264.58344)">
      <rect
         style="opacity:1;fill:#ffccaa;fill-opacity:1;stroke:none;stroke-width:2.14272761;stroke-miterlimit:4;stroke-dasharray:none;stroke-opacity:1"
         id="rect1621-0"
         width="209.4624"
         height="25.151028"
         x="0.31427109"
         y="6.6855245"
         inkscape:export-xdpi="122.91"
         inkscape:export-ydpi="122.91" />
      <g
         transform="matrix(0.01539266,0,0,0.01370836,59.490166,-15.33828)"
         id="g1491-5"
         inkscape:export-xdpi="122.91"
         inkscape:export-ydpi="122.91">
        <path
           style="fill:#2f9b9e;fill-opacity:1;stroke:#2f9b9e;stroke-width:0.26458332px;stroke-linecap:butt;stroke-linejoin:miter;stroke-opacity:1"
           d="m -3044.0921,2413.7131 122.4644,-1.5119 1.1782,-142.4917 -140.0492,-116.5295 h -341.5703 l -163.8502,136.7475 121.087,38.5813 90.8717,-75.37 239.4735,1.0691 71.0937,59.8684 z"
           id="path195-1-4-3"
           inkscape:connector-curvature="0"
           sodipodi:nodetypes="ccccccccccc" />
        <path
           style="fill:#808080;fill-opacity:1;stroke:#a3a4a8;stroke-width:0.26458332px;stroke-linecap:butt;stroke-linejoin:miter;stroke-opacity:1"
           d="m -3044.1157,2704.662 122.4643,1.5119 1.1785,142.4917 -140.0494,116.5295 h -341.5703 l -163.8502,-136.7475 121.087,-38.5813 90.8717,75.37 239.4736,-1.0691 71.0937,-59.8683 z"
           id="path195-1-3-7-0"
           inkscape:connector-curvature="0"
           sodipodi:nodetypes="ccccccccccc" />
        <path
           style="fill:#106b70;fill-opacity:1;stroke:#106b70;stroke-width:0.26458332px;stroke-linecap:butt;stroke-linejoin:miter;stroke-opacity:1"
           d="m -3444.8558,2793.0415 0.024,-464.5327 -121.0874,-38.5813 v 538.097 z"
           id="path197-7-21-7"
           inkscape:connector-curvature="0"
           sodipodi:nodetypes="ccccc" />
        <rect
           style="opacity:1;fill:#106b70;fill-opacity:1;fill-rule:evenodd;stroke:#106b70;stroke-width:2.35855508;stroke-miterlimit:4;stroke-dasharray:none;stroke-dashoffset:0;stroke-opacity:1"
           id="rect305-6-79-2"
           width="92.165359"
           height="316.74033"
           x="2567.8315"
           y="2824.6543"
           transform="rotate(90)" />
        <path
           style="opacity:1;fill:#106b70;fill-opacity:1;fill-rule:evenodd;stroke:#106b70;stroke-width:2.55920243;stroke-miterlimit:4;stroke-dasharray:none;stroke-dashoffset:0;stroke-opacity:1"
           d="m -3043.3285,2502.1669 h 120.612 l -0.01,204.6839 -119.8479,81.6084 z"
           id="rect305-5-9"
           inkscape:connector-curvature="0"
           sodipodi:nodetypes="ccccc" />
        <path
           style="fill:#b76e29;fill-opacity:1;stroke:#b76e29;stroke-width:0.15673313px;stroke-linecap:butt;stroke-linejoin:miter;stroke-opacity:1"
           d="m -3130.3726,2424.3732 80.4162,0.4531 0.6763,-99.6375 -68.8236,-59.8683 -231.8272,-1.0691 -87.9699,75.37 73.4404,37.1947 52.9656,-45.3739 139.5755,0.6437 41.4365,36.0419 z"
           id="path195-1-2-6-9"
           inkscape:connector-curvature="0"
           sodipodi:nodetypes="ccccccccccc" />
        <path
           style="fill:#ec8f32;fill-opacity:1;stroke:#ec8f32;stroke-width:0.18337148px;stroke-linecap:butt;stroke-linejoin:miter;stroke-opacity:1"
           d="m -3363.8889,2744.7337 -0.5715,-367.9176 -73.4404,-37.1947 0.5715,442.3069 z"
           id="path197-7-2-8-3"
           inkscape:connector-curvature="0"
           sodipodi:nodetypes="ccccc" />
        <path
           style="fill:#b76e29;fill-opacity:1;stroke:#b76e29;stroke-width:0.15673314px;stroke-linecap:butt;stroke-linejoin:miter;stroke-opacity:1"
           d="m -3129.8014,2697.1766 80.4163,-0.4531 0.6763,99.6374 -68.8238,59.8684 -231.8272,1.0691 -87.9695,-75.3701 73.4404,-37.1946 52.9652,45.3738 139.5756,-0.6437 41.4365,-36.0418 z"
           id="path195-1-2-5-9-0"
           inkscape:connector-curvature="0"
           sodipodi:nodetypes="ccccccccccc" />
      </g>
      <g
         transform="matrix(0.46089344,0,0,0.46089344,137.87975,-59.651688)"
         id="g1524-2"
         inkscape:export-xdpi="122.91"
         inkscape:export-ydpi="122.91">
        <g
           id="g1481-7"
           transform="matrix(0.06238867,0,0,0.06238867,-32.345918,-29.169023)">
          <path
             sodipodi:nodetypes="ccccccccccc"
             inkscape:connector-curvature="0"
             id="path195-1-1-1-9"
             d="m -3525.615,3116.0034 33.6032,-0.3672 0.3232,-34.5972 -38.4285,-28.2938 h -93.7243 l -44.9592,33.2029 33.2251,9.3674 24.9348,-18.2999 65.7097,0.2596 19.5076,14.536 z"
             style="fill:#2f9b9e;fill-opacity:1;stroke:#2f9b9e;stroke-width:0.06829285px;stroke-linecap:butt;stroke-linejoin:miter;stroke-opacity:1" />
          <path
             sodipodi:nodetypes="ccccccccccc"
             inkscape:connector-curvature="0"
             id="path195-1-3-8-0-9"
             d="m -3525.6215,3186.6465 33.6031,0.3671 0.3234,34.5972 -38.4284,28.2937 h -93.7246 l -44.9591,-33.2027 33.2254,-9.3676 24.9344,18.3001 65.7099,-0.2596 19.5076,-14.5362 z"
             style="fill:#808080;fill-opacity:1;stroke:#a3a4a8;stroke-width:0.06829285px;stroke-linecap:butt;stroke-linejoin:miter;stroke-opacity:1" />
          <path
             sodipodi:nodetypes="ccccc"
             inkscape:connector-curvature="0"
             id="path197-7-8-0-5"
             d="m -3635.5817,3208.1052 0.02,-112.7897 -33.2254,-9.3674 v 130.6509 z"
             style="fill:#106b70;fill-opacity:1;stroke:#106b70;stroke-width:0.06829285px;stroke-linecap:butt;stroke-linejoin:miter;stroke-opacity:1" />
          <rect
             transform="rotate(90)"
             y="3465.3323"
             x="3153.4231"
             height="86.911232"
             width="22.377977"
             id="rect305-6-7-6-2"
             style="opacity:1;fill:#106b70;fill-opacity:1;fill-rule:evenodd;stroke:#106b70;stroke-width:0.60877788;stroke-miterlimit:4;stroke-dasharray:none;stroke-dashoffset:0;stroke-opacity:1" />
          <path
             sodipodi:nodetypes="ccccc"
             inkscape:connector-curvature="0"
             id="rect305-0-4-0"
             d="m -3525.3351,3137.4802 h 33.0951 v 49.6976 l -32.8853,19.815 z"
             style="opacity:1;fill:#106b70;fill-opacity:1;fill-rule:evenodd;stroke:#106b70;stroke-width:0.66056788;stroke-miterlimit:4;stroke-dasharray:none;stroke-dashoffset:0;stroke-opacity:1" />
          <path
             style="fill:#b76e29;fill-opacity:1;stroke:#b76e29;stroke-width:0.04201494px;stroke-linecap:butt;stroke-linejoin:miter;stroke-opacity:1"
             d="m -4010.4,3368.3899 25.3401,0.1028 0.213,-22.7219 -21.687,-13.6528 -73.0514,-0.2436 -27.7203,17.1878 23.1418,8.4821 16.6901,-10.3475 43.9818,0.147 13.0571,8.2192 z"
             id="path195-1-2-7-3-8"
             inkscape:connector-curvature="0"
             sodipodi:nodetypes="ccccccccccc"
             transform="translate(439.86979,-47.624979)" />
          <path
             style="fill:#ec8f32;fill-opacity:1;stroke:#ec8f32;stroke-width:0.04915582px;stroke-linecap:butt;stroke-linejoin:miter;stroke-opacity:1"
             d="m -4083.9837,3441.447 -0.1801,-83.9021 -23.1418,-8.4821 0.18,100.8662 z"
             id="path197-7-2-9-7-3"
             inkscape:connector-curvature="0"
             sodipodi:nodetypes="ccccc"
             transform="translate(439.86979,-47.624979)" />
          <path
             style="fill:#b76e29;fill-opacity:1;stroke:#b76e29;stroke-width:0.04201494px;stroke-linecap:butt;stroke-linejoin:miter;stroke-opacity:1"
             d="m -4010.2199,3430.6017 25.3399,-0.1039 0.2131,22.7216 -21.687,13.653 -73.0515,0.2437 -27.7202,-17.1877 23.1419,-8.4821 16.69,10.3473 43.9817,-0.147 13.0572,-8.219 z"
             id="path195-1-2-5-1-3-5"
             inkscape:connector-curvature="0"
             sodipodi:nodetypes="ccccccccccc"
             transform="translate(439.86979,-47.624979)" />
          <text
             transform="scale(1.0978392,0.91088021)"
             id="text819-1-4-9"
             y="3568.5796"
             x="-3169.342"
             style="font-style:normal;font-weight:normal;font-size:309.46502686px;line-height:1.25;font-family:sans-serif;letter-spacing:-462.10864258px;word-spacing:0px;fill:#808080;fill-opacity:1;stroke:none;stroke-width:7.73772144;stroke-miterlimit:4;stroke-dasharray:none"
             xml:space="preserve"><tspan
               style="font-style:normal;font-variant:normal;font-weight:normal;font-stretch:normal;font-family:'I AM A PLAYER';-inkscape-font-specification:'I AM A PLAYER';letter-spacing:0px;fill:#808080;fill-opacity:1;fill-rule:nonzero;stroke-width:7.73772144;stroke-miterlimit:4;stroke-dasharray:none"
               y="3568.5796"
               x="-3169.342"
               id="tspan817-28-66-6"
               sodipodi:role="line">enio</tspan></text>
          <text
             transform="scale(1.0978392,0.91088021)"
             id="text819-1-4-7-5"
             y="3755.3953"
             x="-3221.7512"
             style="font-style:normal;font-weight:normal;font-size:214.71559143px;line-height:1.25;font-family:sans-serif;letter-spacing:-320.62405396px;word-spacing:0px;fill:#808080;fill-opacity:1;stroke:none;stroke-width:5.36864996;stroke-miterlimit:4;stroke-dasharray:none"
             xml:space="preserve"><tspan
               style="font-style:normal;font-variant:normal;font-weight:normal;font-stretch:normal;font-family:'I AM A PLAYER';-inkscape-font-specification:'I AM A PLAYER';letter-spacing:0px;fill:#808080;fill-opacity:1;fill-rule:nonzero;stroke-width:5.36864996;stroke-miterlimit:4;stroke-dasharray:none"
               y="3755.3953"
               x="-3221.7512"
               id="tspan817-28-66-2-6"
               sodipodi:role="line">ristao</tspan></text>
        </g>
        <path
           style="fill:#106b70;fill-opacity:1;stroke:#000000;stroke-width:0.02712736px;stroke-linecap:butt;stroke-linejoin:miter;stroke-opacity:1"
           d="m -245.90669,160.26105 1.00865,0.007 1.48722,-1.54042 1.45776,1.54042 0.99393,-0.007 -2.07622,-2.1581 -0.7804,0.007 z"
           id="path1510-3"
           inkscape:connector-curvature="0" />
        <rect
           style="opacity:1;fill:#b76e29;fill-opacity:1;fill-rule:evenodd;stroke:#b76e29;stroke-width:0.0921375;stroke-miterlimit:4;stroke-dasharray:none;stroke-dashoffset:0;stroke-opacity:1"
           id="rect1512-0"
           width="3.2031007"
           height="0.89144033"
           x="-220.2538"
           y="174.35699" />
      </g>
      <g
         transform="matrix(0.92290796,0,0,0.92290796,15.153614,0.52766581)"
         id="g2616"
         inkscape:export-xdpi="122.91"
         inkscape:export-ydpi="122.91">
        <path
           style="fill:#ffffff;fill-opacity:1;stroke:#ffffff;stroke-width:0.00889557;stroke-linecap:butt;stroke-linejoin:miter;stroke-miterlimit:4;stroke-dasharray:none;stroke-opacity:1"
           d="m 204.8943,20.70026 3.40765,2.498852 2.66038,-3.477783 -1.71601,-5.76424 -9.42666,-7.0732883 -7.04386,-0.032034 2.63022,3.4557443 3.89788,0.02933 6.58927,4.98533 0.85793,2.943674 z"
           id="path195-1-4-1-7"
           inkscape:connector-curvature="0"
           sodipodi:nodetypes="ccccccccccc" />
        <path
           style="fill:#ffffff;fill-opacity:1;stroke:#ffffff;stroke-width:0.00861508px;stroke-linecap:butt;stroke-linejoin:miter;stroke-opacity:1"
           d="m 199.5279,27.850756 3.35188,2.573168 -2.59534,3.526588 -6.01415,-0.03609 -9.42665,-7.073289 -1.99999,-6.754035 4.05327,1.55923 1.11789,3.73424 6.62871,4.93278 3.06613,8.51e-4 z"
           id="path195-1-3-7-8-4"
           inkscape:connector-curvature="0"
           sodipodi:nodetypes="ccccccccccc" />
        <path
           style="fill:#ffffff;fill-opacity:1;stroke:#ffffff;stroke-width:0.00861508px;stroke-linecap:butt;stroke-linejoin:miter;stroke-opacity:1"
           d="m 186.83836,21.724374 8.56767,-11.416855 -2.63023,-3.455753 -9.92371,13.225426 z"
           id="path197-7-21-6-7"
           inkscape:connector-curvature="0"
           sodipodi:nodetypes="ccccc" />
        <rect
           style="opacity:1;fill:#ffffff;fill-opacity:1;fill-rule:evenodd;stroke:#ffffff;stroke-width:0.00889557;stroke-miterlimit:4;stroke-dasharray:none;stroke-dashoffset:0;stroke-opacity:1"
           id="rect305-6-79-4-3"
           width="2.8320434"
           height="10.928578"
           x="-101.68016"
           y="-183.88304"
           transform="rotate(126.88274)" />
        <path
           style="opacity:1;fill:#ffffff;fill-opacity:1;fill-rule:evenodd;stroke:#ffffff;stroke-width:0.00889557;stroke-miterlimit:4;stroke-dasharray:none;stroke-dashoffset:0;stroke-opacity:1"
           d="m 203.28408,22.890104 3.32865,2.497652 -3.7751,5.030545 -4.8126,-0.476046 z"
           id="rect305-5-3-0"
           inkscape:connector-curvature="0"
           sodipodi:nodetypes="ccccc" />
        <path
           style="fill:#ffffff;fill-opacity:1;stroke:#ffffff;stroke-width:0.00510337px;stroke-linecap:butt;stroke-linejoin:miter;stroke-opacity:1"
           d="m 202.31653,19.175556 2.21096,1.676408 1.85621,-2.4349 -0.79529,-2.896662 -6.37825,-4.826988 -3.81778,0.03076 1.34085,2.434991 2.29855,-0.01838 3.84012,2.906172 0.47888,1.743916 z"
           id="path195-1-2-6-4-1"
           inkscape:connector-curvature="0"
           sodipodi:nodetypes="ccccccccccc" />
        <path
           style="fill:#ffffff;fill-opacity:1;stroke:#ffffff;stroke-width:0.00597073px;stroke-linecap:butt;stroke-linejoin:miter;stroke-opacity:1"
           d="m 189.96379,22.213733 6.76944,-9.054568 -1.34085,-2.434991 -8.14134,10.882918 z"
           id="path197-7-2-8-7-6"
           inkscape:connector-curvature="0"
           sodipodi:nodetypes="ccccc" />
        <path
           style="fill:#ffffff;fill-opacity:1;stroke:#ffffff;stroke-width:0.00510337px;stroke-linecap:butt;stroke-linejoin:miter;stroke-opacity:1"
           d="m 197.3012,25.892387 2.22767,1.654136 -1.81886,2.462907 -3.00351,0.04624 -6.41768,-4.774437 -1.03778,-3.674143 2.71275,0.606641 0.62493,2.212015 3.86389,2.874532 1.80825,-0.02777 z"
           id="path195-1-2-5-9-7-7"
           inkscape:connector-curvature="0"
           sodipodi:nodetypes="ccccccccccc" />
      </g>
      <path
         inkscape:connector-curvature="0"
         id="path476-7"
         style="fill:#ff9800;fill-opacity:1;fill-rule:nonzero;stroke:none;stroke-width:0.45855907"
         d="m 141.42929,8.202923 h 68.38275 v -8.27604419 h -68.38275 z"
         inkscape:export-xdpi="122.91"
         inkscape:export-ydpi="122.91" />
    </g>
  </g>
</svg>
