<?xml version="1.0" encoding="UTF-8" standalone="no"?>
<!-- Created with Inkscape (http://www.inkscape.org/) -->

<svg
   xmlns:dc="http://purl.org/dc/elements/1.1/"
   xmlns:cc="http://creativecommons.org/ns#"
   xmlns:rdf="http://www.w3.org/1999/02/22-rdf-syntax-ns#"
   xmlns:svg="http://www.w3.org/2000/svg"
   xmlns="http://www.w3.org/2000/svg"
   xmlns:sodipodi="http://sodipodi.sourceforge.net/DTD/sodipodi-0.dtd"
   xmlns:inkscape="http://www.inkscape.org/namespaces/inkscape"
   width="80mm"
   height="150mm"
   viewBox="0 0 80 150"
   version="1.1"
   id="svg928"
   inkscape:version="0.92.3 (2405546, 2018-03-11)"
   sodipodi:docname="LedAmarelo.svg">
  <defs
     id="defs922" />
  <sodipodi:namedview
     id="base"
     pagecolor="#ffffff"
     bordercolor="#666666"
     borderopacity="1.0"
     inkscape:pageopacity="0.0"
     inkscape:pageshadow="2"
     inkscape:zoom="0.7"
     inkscape:cx="-495.01043"
     inkscape:cy="244.30282"
     inkscape:document-units="mm"
     inkscape:current-layer="layer1"
     showgrid="false"
     inkscape:window-width="1920"
     inkscape:window-height="1023"
     inkscape:window-x="0"
     inkscape:window-y="0"
     inkscape:window-maximized="1" />
  <metadata
     id="metadata925">
    <rdf:RDF>
      <cc:Work
         rdf:about="">
        <dc:format>image/svg+xml</dc:format>
        <dc:type
           rdf:resource="http://purl.org/dc/dcmitype/StillImage" />
        <dc:title />
      </cc:Work>
    </rdf:RDF>
  </metadata>
  <g
     inkscape:label="Camada 1"
     inkscape:groupmode="layer"
     id="layer1"
     transform="translate(0,-147)">
    <path
       inkscape:connector-curvature="0"
       style="fill:#ffff00;stroke-width:2.11666656"
       d="m 29.9336,218.83458 h 6.35 14.816667 10.583333 1.058334 c 1.756833,0 3.175,1.41816 3.175,3.175 0,1.75683 -1.418167,3.175 -3.175,3.175 H 51.100267 29.9336 18.291934 c -1.756834,0 -3.175,-1.41817 -3.175,-3.175 0,-1.75684 1.418166,-3.175 3.175,-3.175 h 1.058333 z"
       id="path2" />
    <path
       inkscape:connector-curvature="0"
       style="fill:#ffff00;stroke-width:2.11666656"
       d="m 36.2836,206.13458 v 12.7 h -6.35 v -16.93334 z"
       id="path4" />
    <path
       inkscape:connector-curvature="0"
       style="fill:#ffff00;stroke-width:2.11666656"
       d="m 51.100267,191.31791 v 16.93333 l -12.7,-8.46666 v -8.46667 z"
       id="path6" />
    <path
       inkscape:connector-curvature="0"
       style="fill:#ffff00;stroke-width:2.11666656"
       d="m 51.100267,208.25124 v -16.93333 h -12.7 v 8.46667 z m 0,10.58334 H 36.2836 v -12.7 l -6.35,-4.23334 v 16.93334 H 19.350267 v -40.21667 -0.0212 c 0.02117,-11.70517 9.482667,-21.1455 21.166667,-21.1455 11.684,0 21.1455,9.44033 21.166666,21.1455 v 0.0212 40.21667 z"
       id="path8" />
    <path
       style="stroke-width:2.11666656"
       inkscape:connector-curvature="0"
       d="m 61.685717,180.73458 c -1.170517,0 -2.116667,-0.94615 -2.116667,-2.11667 0,-10.50502 -8.544983,-19.05 -19.05,-19.05 -10.505016,0 -19.05,8.54498 -19.05,19.05 0,1.17052 -0.94615,2.11667 -2.116666,2.11667 -1.170517,0 -2.116667,-0.94615 -2.116667,-2.11667 0,-12.83758 10.44575,-23.28333 23.283333,-23.28333 12.837584,0 23.283334,10.44575 23.283334,23.28333 0,1.17052 -0.94615,2.11667 -2.116667,2.11667 z"
       id="path50" />
    <path
       style="stroke-width:2.11666656"
       inkscape:connector-curvature="0"
       d="m 61.681484,220.96183 c -1.170517,0 -2.116667,-0.94615 -2.116667,-2.11667 v -40.23148 c 0,-1.17052 0.94615,-2.11667 2.116667,-2.11667 1.170516,0 2.116666,0.94615 2.116666,2.11667 v 40.23148 c 0,1.17052 -0.94615,2.11667 -2.116666,2.11667 z"
       id="path52" />
    <path
       style="stroke-width:2.11666656"
       inkscape:connector-curvature="0"
       d="m 19.356617,220.96183 c -1.170517,0 -2.116667,-0.94615 -2.116667,-2.11667 v -40.23148 c 0,-1.17052 0.94615,-2.11667 2.116667,-2.11667 1.170517,0 2.116667,0.94615 2.116667,2.11667 v 40.23148 c 0,1.17052 -0.94615,2.11667 -2.116667,2.11667 z"
       id="path54" />
    <path
       style="stroke-width:2.11666656"
       inkscape:connector-curvature="0"
       d="m 62.739817,227.31183 c -1.170517,0 -2.116667,-0.94615 -2.116667,-2.11667 0,-1.17052 0.94615,-2.11667 2.116667,-2.11667 0.582083,0 1.058333,-0.47625 1.058333,-1.05833 0,-0.58208 -0.47625,-1.05833 -1.058333,-1.05833 -1.170517,0 -2.116667,-0.94615 -2.116667,-2.11667 0,-1.17052 0.94615,-2.11667 2.116667,-2.11667 2.918883,0 5.291665,2.37279 5.291665,5.29167 0,2.91888 -2.372782,5.29167 -5.291665,5.29167 z"
       id="path56" />
    <path
       style="stroke-width:2.11666656"
       inkscape:connector-curvature="0"
       d="m 18.298284,227.31183 c -2.918884,0 -5.291668,-2.37279 -5.291668,-5.29167 0,-2.91888 2.372784,-5.29167 5.291668,-5.29167 1.170516,0 2.116666,0.94615 2.116666,2.11667 0,1.17052 -0.94615,2.11667 -2.116666,2.11667 -0.582084,0 -1.058334,0.47625 -1.058334,1.05833 0,0.58208 0.47625,1.05833 1.058334,1.05833 1.170516,0 2.116666,0.94615 2.116666,2.11667 0,1.17052 -0.94615,2.11667 -2.116666,2.11667 z"
       id="path58" />
    <path
       style="stroke-width:2.11666656"
       inkscape:connector-curvature="0"
       d="M 62.739817,220.96183 H 18.298284 c -1.170517,0 -2.116667,-0.94615 -2.116667,-2.11667 0,-1.17052 0.94615,-2.11667 2.116667,-2.11667 h 44.441533 c 1.170517,0 2.116667,0.94615 2.116667,2.11667 0,1.17052 -0.94615,2.11667 -2.116667,2.11667 z"
       id="path60" />
    <path
       style="stroke-width:2.11666656"
       inkscape:connector-curvature="0"
       d="M 62.739817,227.30971 H 18.298284 c -1.170517,0 -2.116667,-0.94615 -2.116667,-2.11667 0,-1.17051 0.94615,-2.11666 2.116667,-2.11666 h 44.441533 c 1.170517,0 2.116667,0.94615 2.116667,2.11666 0,1.17052 -0.94615,2.11667 -2.116667,2.11667 z"
       id="path62" />
    <path
       style="stroke-width:2.11666656"
       inkscape:connector-curvature="0"
       d="m 51.096034,220.96183 c -1.170517,0 -2.116667,-0.94615 -2.116667,-2.11667 v -29.64392 c 0,-1.17051 0.94615,-2.11666 2.116667,-2.11666 1.170516,0 2.116666,0.94615 2.116666,2.11666 v 29.64392 c 0,1.17052 -0.94615,2.11667 -2.116666,2.11667 z"
       id="path64" />
    <path
       style="stroke-width:2.11666656"
       inkscape:connector-curvature="0"
       d="m 51.096034,193.43458 h -12.69365 c -1.170517,0 -2.116667,-0.94615 -2.116667,-2.11667 0,-1.17052 0.94615,-2.11667 2.116667,-2.11667 h 12.69365 c 1.170516,0 2.116666,0.94615 2.116666,2.11667 0,1.17052 -0.94615,2.11667 -2.116666,2.11667 z"
       id="path66" />
    <path
       style="stroke-width:2.11666656"
       inkscape:connector-curvature="0"
       d="m 38.402384,201.90124 c -1.170517,0 -2.116667,-0.94615 -2.116667,-2.11666 v -8.46667 c 0,-1.17052 0.94615,-2.11667 2.116667,-2.11667 1.170516,0 2.116666,0.94615 2.116666,2.11667 v 8.46667 c 0,1.17051 -0.94615,2.11666 -2.116666,2.11666 z"
       id="path68" />
    <path
       style="stroke-width:2.11666656"
       inkscape:connector-curvature="0"
       d="m 51.093917,210.36791 c -0.402167,0 -0.8128,-0.11642 -1.172633,-0.3556 l -12.69365,-8.46667 c -0.973667,-0.64981 -1.236134,-1.96426 -0.586317,-2.93581 0.6477,-0.97367 1.964267,-1.23614 2.935817,-0.58632 l 12.69365,8.46667 c 0.973666,0.64981 1.236133,1.96426 0.586316,2.93581 -0.4064,0.61172 -1.0795,0.94192 -1.763183,0.94192 z"
       id="path70" />
    <path
       style="stroke-width:2.11666656"
       inkscape:connector-curvature="0"
       d="m 29.937834,220.96183 c -1.170517,0 -2.116667,-0.94615 -2.116667,-2.11667 v -29.64392 c 0,-1.17051 0.94615,-2.11666 2.116667,-2.11666 1.170516,0 2.116666,0.94615 2.116666,2.11666 v 29.64392 c 0,1.17052 -0.94615,2.11667 -2.116666,2.11667 z"
       id="path72" />
    <path
       style="stroke-width:2.11666656"
       inkscape:connector-curvature="0"
       d="m 36.285717,220.96183 c -1.170517,0 -2.116667,-0.94615 -2.116667,-2.11667 v -12.71058 c 0,-1.17052 0.94615,-2.11667 2.116667,-2.11667 1.170517,0 2.116667,0.94615 2.116667,2.11667 v 12.71058 c 0,1.17052 -0.94615,2.11667 -2.116667,2.11667 z"
       id="path74" />
    <path
       style="stroke-width:2.11666656"
       inkscape:connector-curvature="0"
       d="m 36.2836,208.25124 c -0.402166,0 -0.810683,-0.11641 -1.172633,-0.3556 l -6.347883,-4.23121 c -0.973667,-0.64982 -1.236134,-1.96215 -0.586317,-2.93582 0.6477,-0.97367 1.960033,-1.23613 2.935817,-0.58632 l 6.347883,4.23122 c 0.973667,0.64982 1.236133,1.96215 0.586317,2.93582 -0.4064,0.61171 -1.0795,0.94191 -1.763184,0.94191 z"
       id="path76" />
    <path
       d="m 51.09815,273.14515 c -1.170516,0 -2.116666,-0.69949 -2.116666,-1.56485 v -46.93908 c 0,-0.86536 0.94615,-1.56484 2.116666,-1.56484 1.170517,0 2.116667,0.69948 2.116667,1.56484 v 46.93908 c 0,0.86536 -0.94615,1.56485 -2.116667,1.56485 z"
       id="path78"
       inkscape:connector-curvature="0"
       style="stroke-width:1.81996" />
    <path
       style="stroke-width:2.11666656"
       inkscape:connector-curvature="0"
       d="m 29.93995,290.80125 c -1.170516,0 -2.116666,-0.94615 -2.116666,-2.11667 v -63.49154 c 0,-1.17051 0.94615,-2.11666 2.116666,-2.11666 1.170517,0 2.116667,0.94615 2.116667,2.11666 v 63.49154 c 0,1.17052 -0.94615,2.11667 -2.116667,2.11667 z"
       id="path80" />
  </g>
</svg>
